<?xml version="1.0" encoding="UTF-8" standalone="no"?>
<!-- Created with Inkscape (http://www.inkscape.org/) -->

<svg
   xmlns:dc="http://purl.org/dc/elements/1.1/"
   xmlns:cc="http://creativecommons.org/ns#"
   xmlns:rdf="http://www.w3.org/1999/02/22-rdf-syntax-ns#"
   xmlns:svg="http://www.w3.org/2000/svg"
   xmlns="http://www.w3.org/2000/svg"
   xmlns:sodipodi="http://sodipodi.sourceforge.net/DTD/sodipodi-0.dtd"
   xmlns:inkscape="http://www.inkscape.org/namespaces/inkscape"
   width="656.57062mm"
   height="117.50434mm"
   viewBox="0 0 656.57062 117.50434"
   version="1.1"
   id="svg8"
   inkscape:version="0.92.1 r15371"
   sodipodi:docname="about_bottom.svg">
  <defs
     id="defs2" />
  <sodipodi:namedview
     id="base"
     pagecolor="#ffffff"
     bordercolor="#666666"
     borderopacity="1.0"
     inkscape:pageopacity="0.0"
     inkscape:pageshadow="2"
     inkscape:zoom="0.88579856"
     inkscape:cx="2480.6737"
     inkscape:cy="86.40378"
     inkscape:document-units="mm"
     inkscape:current-layer="layer1"
     showgrid="false"
     fit-margin-top="0"
     fit-margin-left="0"
     fit-margin-right="0"
     fit-margin-bottom="0"
     inkscape:window-width="1920"
     inkscape:window-height="1052"
     inkscape:window-x="-9"
     inkscape:window-y="-9"
     inkscape:window-maximized="1" />
  <metadata
     id="metadata5">
    <rdf:RDF>
      <cc:Work
         rdf:about="">
        <dc:format>image/svg+xml</dc:format>
        <dc:type
           rdf:resource="http://purl.org/dc/dcmitype/StillImage" />
        <dc:title></dc:title>
      </cc:Work>
    </rdf:RDF>
  </metadata>
  <g
     inkscape:label="Layer 1"
     inkscape:groupmode="layer"
     id="layer1"
     transform="translate(432.25868,-93.071905)">
    <g
       id="g68"
       transform="matrix(1.0036394,0,0,1.010168,-9.2421558,41.457244)">
      <path
         style="fill:transparent;stroke-width:0.25422794"
         d="M -422.673,109.86047 V 51.122974 h 303.63737 303.63738 v 58.737496 58.7375 H -119.03563 -422.673 Z"
         id="path72"
         inkscape:connector-curvature="0" />
      <path
         style="fill:#f0f0f0;stroke-width:0.26458332"
         d="m -422.673,130.25196 c 0,-36.28933 0.0249,-38.355342 0.46302,-38.493714 0.36078,-0.113932 173.89248,-35.665483 193.951,-39.734864 l 4.57548,-0.928254 228.633221,58.234242 c 125.748279,32.02882 228.747499,58.30485 228.887149,58.39116 0.13964,0.0863 0.0302,0.28927 -0.2431,0.45104 -0.36372,0.21524 -88.42592,0.31205 -328.381882,0.361 l -327.884888,0.0669 z"
         id="path70"
         inkscape:connector-curvature="0" />
    </g>
  </g>
</svg>
